AT,PV,XT,AC,TOTAL_AT,TOTAL_PV,TOTAL_EV,TOTAL_AC
1.186111111,12645,0.891933566,9645,7.486111111,12645,12645,11100
3.986111111,12645,0.934567026,10215,7.486111111,12645,12645,11100
5.619444444,12645,0.994306048,11010,7.486111111,12645,12645,11100
7.486111111,12645,1,11100,7.486111111,12645,12645,11100
